Nombre,Apellido,Edad,Tipo documento,Email,Sucursal,Tipo empleado
Northrop,Krale,1,1,nkrale0@mediafire.com,1,1
Carleton,Squibb,2,2,csquibb1@delicious.com,2,2
Albertine,Dobbing,3,3,adobbing2@springer.com,3,3
Malanie,Talks,4,4,mtalks3@theguardian.com,4,4
Kirby,Tennet,5,5,ktennet4@ucoz.ru,5,5
Hertha,Smaile,6,6,hsmaile5@simplemachines.org,6,6
Cherilynn,Burlingame,7,7,cburlingame6@elpais.com,7,7
Donielle,Freund,8,8,dfreund7@yolasite.com,8,8
Mamie,Bernli,9,9,mbernli8@howstuffworks.com,9,9
Bruce,Vickarman,10,10,bvickarman9@t-online.de,10,10
Robbie,Cutford,11,11,rcutforda@clickbank.net,11,11
Aviva,Jarrad,12,12,ajarradb@archive.org,12,12
Gerald,Retter,13,13,gretterc@rambler.ru,13,13
Flor,Tidy,14,14,ftidyd@statcounter.com,14,14
Fallon,Melato,15,15,fmelatoe@cbsnews.com,15,15
Craggie,Borghese,16,16,cborghesef@umich.edu,16,16
Griffie,Dales,17,17,gdalesg@ameblo.jp,17,17
Gene,Dinan,18,18,gdinanh@opera.com,18,18
Sibel,Stote,19,19,sstotei@themeforest.net,19,19
Hillier,Learmont,20,20,hlearmontj@goodreads.com,20,20
August,Edmonston,21,21,aedmonstonk@tripod.com,21,21
Catlin,Haugen,22,22,chaugenl@taobao.com,22,22
Wendye,Barrington,23,23,wbarringtonm@delicious.com,23,23
Opalina,Brugh,24,24,obrughn@wp.com,24,24
Falito,Fincher,25,25,ffinchero@adobe.com,25,25
Ethelyn,Rooney,26,26,erooneyp@smh.com.au,26,26
Jerald,Vynarde,27,27,jvynardeq@sfgate.com,27,27
Anitra,Duff,28,28,aduffr@nasa.gov,28,28
Bran,Scorthorne,29,29,bscorthornes@fema.gov,29,29
Ulick,Lyver,30,30,ulyvert@naver.com,30,30
Caritta,Mayte,31,31,cmayteu@elpais.com,31,31
Ricki,Skellern,32,32,rskellernv@scribd.com,32,32
Nap,Vankeev,33,33,nvankeevw@blogtalkradio.com,33,33
Belle,Evison,34,34,bevisonx@t-online.de,34,34
Heall,Embling,35,35,hemblingy@tinypic.com,35,35
Maurie,Isakson,36,36,misaksonz@xing.com,36,36
Elizabet,Barthropp,37,37,ebarthropp10@csmonitor.com,37,37
Daven,Hearons,38,38,dhearons11@discuz.net,38,38
Alfredo,Sowrah,39,39,asowrah12@mit.edu,39,39
Nikolia,Radford,40,40,nradford13@state.gov,40,40
Karie,Sargeant,41,41,ksargeant14@symantec.com,41,41
Carlyle,Wiffill,42,42,cwiffill15@mozilla.org,42,42
Bobbye,Maccree,43,43,bmaccree16@edublogs.org,43,43
Westley,Thunnerclef,44,44,wthunnerclef17@acquirethisname.com,44,44
Lily,Kilbane,45,45,lkilbane18@arstechnica.com,45,45
Sissy,Carrack,46,46,scarrack19@i2i.jp,46,46
Dallas,Wroth,47,47,dwroth1a@amazonaws.com,47,47
Mitchael,Fahrenbacher,48,48,mfahrenbacher1b@zimbio.com,48,48
Pancho,Messruther,49,49,pmessruther1c@printfriendly.com,49,49
Layney,Filyushkin,50,50,lfilyushkin1d@constantcontact.com,50,50
Ryley,Cadman,51,51,rcadman1e@blogs.com,51,51
Gib,Hayers,52,52,ghayers1f@intel.com,52,52
Bent,Neild,53,53,bneild1g@bbb.org,53,53
Timmie,Benda,54,54,tbenda1h@artisteer.com,54,54
Codi,Petri,55,55,cpetri1i@phoca.cz,55,55
Cassie,Swedeland,56,56,cswedeland1j@skyrock.com,56,56
Penn,Richten,57,57,prichten1k@shutterfly.com,57,57
Kirstin,Perrington,58,58,kperrington1l@springer.com,58,58
Pinchas,Leachman,59,59,pleachman1m@dyndns.org,59,59
Wrennie,Hanby,60,60,whanby1n@pen.io,60,60
Carling,Birkby,61,61,cbirkby1o@businesswire.com,61,61
Micaela,Pinar,62,62,mpinar1p@scribd.com,62,62
Obediah,Osbaldeston,63,63,oosbaldeston1q@issuu.com,63,63
Obadias,Shercliff,64,64,oshercliff1r@admin.ch,64,64
Shanan,Gytesham,65,65,sgytesham1s@shop-pro.jp,65,65
Lorin,Wozencroft,66,66,lwozencroft1t@ucoz.ru,66,66
See,Drugan,67,67,sdrugan1u@yolasite.com,67,67
Pauly,Father,68,68,pfather1v@gnu.org,68,68
Dominica,Gargett,69,69,dgargett1w@delicious.com,69,69
Hugibert,Durdan,70,70,hdurdan1x@tumblr.com,70,70
Carlie,De Witt,71,71,cdewitt1y@icq.com,71,71
Danya,Clawsley,72,72,dclawsley1z@hostgator.com,72,72
Modesty,Cummins,73,73,mcummins20@blogtalkradio.com,73,73
Silvio,Hardesty,74,74,shardesty21@smugmug.com,74,74
Cosme,Conduit,75,75,cconduit22@bluehost.com,75,75
Nadia,Klesse,76,76,nklesse23@mashable.com,76,76
Gray,Sabathe,77,77,gsabathe24@paypal.com,77,77
Lamar,Eddy,78,78,leddy25@mtv.com,78,78
Delores,Rikard,79,79,drikard26@imageshack.us,79,79
Lissie,Bever,80,80,lbever27@livejournal.com,80,80
Rebe,Eckert,81,81,reckert28@tmall.com,81,81
Ricca,Staries,82,82,rstaries29@earthlink.net,82,82
Gothart,Spacie,83,83,gspacie2a@apache.org,83,83
Camala,Node,84,84,cnode2b@merriam-webster.com,84,84
Henry,Hickenbottom,85,85,hhickenbottom2c@patch.com,85,85
Augustine,Buggy,86,86,abuggy2d@stanford.edu,86,86
Fan,Edmonson,87,87,fedmonson2e@oakley.com,87,87
Devlin,Cleall,88,88,dcleall2f@joomla.org,88,88
Connie,Betho,89,89,cbetho2g@ca.gov,89,89
Kaile,Meiner,90,90,kmeiner2h@fotki.com,90,90
Gaylor,Cheal,91,91,gcheal2i@ehow.com,91,91
Johnathan,Keyson,92,92,jkeyson2j@aboutads.info,92,92
Egbert,Merrywether,93,93,emerrywether2k@google.es,93,93
Eleanor,Trobe,94,94,etrobe2l@tiny.cc,94,94
Rozina,Tynnan,95,95,rtynnan2m@macromedia.com,95,95
Sutherlan,McDougle,96,96,smcdougle2n@home.pl,96,96
Estella,Ferries,97,97,eferries2o@nyu.edu,97,97
Dallas,Geerdts,98,98,dgeerdts2p@baidu.com,98,98
Verena,Jarmaine,99,99,vjarmaine2q@qq.com,99,99
Dionisio,Swetmore,100,100,dswetmore2r@ted.com,100,100
